[
    {"path": "addons/graph_heapmap",
     "name": "Heap Memory Map",
     "id": "xdc-rov-polymerUI-examples-graph_heapmap"},

    {"path": "addons/graph_stacks",
     "name": "Stacks Graph",
     "id": "xdc-rov-polymerUI-examples-graph_stacks"},

    {"path": "addons/graph_cpu",
     "name": "CPU Graph",
     "id": "xdc-rov-polymerUI-examples-graph_cpu"},

    {"path": "addons/graph_heap",
     "name": "Heap Graph",
     "id": "xdc-rov-polymerUI-examples-graph_heap"}
]
